{
	"title":"Édition 2018",
	"year":"2018",
	"type":"Site web",
	"text":"Conception du site web du salon d'édition indépendante Mirage ainsi que des affiches et flyers de l'événement.<br>Illustation: Paul d'Orlando",
	"url":"http://archives.luuse.io/salon-mirage/"
}
