{
	"title":"Claire Williams",
	"year":"2018",
	"type":"Site web",
	"text":"Conception du site web de l'artiste textile et numérique Claire Williams. le site s'aricule en trois parties qui s'entremêlent: Projets, Documentations et le Blog de l'artiste",
	"url":"http://www.xxx-clairewilliams-xxx.com/"

}
