{
	"title":"Édition 2017",
	"year":"2017",
	"type":"Site web",
	"text":"Conception du site web du salon d'édition indépendante Mirage.<br>Illustation: Baptiste Virot",
	"url":"http://archives.luuse.io/salon-mirage/2017/"

}
