{
	"title":"FIMPAH",
	"year":"2018",
	"type":"Identité visuelle",
	"text":"Création de l'identité visuelle du 33<sup>ème</sup> Festival International de Mode, de Photographie et d'Accessoires à Hyères. Affiches, Catalogues, page web et éléments de communication variés ont été conçu pour l'occasion.",
	"url":"http://villanoailles-hyeres.com/festival-2018/pw/festivals/33e-festival-de-mode-de-photographie-et-daccessoire-de-mode-a-hyeres/?lang=fr"
}
